{
   "abstract" : "Blah blah blah",
   "author" : [
      "Jillian Rowe <jillian.e.rowe@gmail.com>"
   ],
   "dynamic_config" : 0,
   "generated_by" : "Dist::Zilla version 5.042, Dist::Milla version v1.0.15, CPAN::Meta::Converter version 2.150005",
   "license" : [
      "perl_5"
   ],
   "meta-spec" : {
      "url" : "http://search.cpan.org/perldoc?CPAN::Meta::Spec",
      "version" : 2
   },
   "name" : "JIRA-OAuth-REST",
   "no_index" : {
      "directory" : [
         "eg",
         "examples",
         "inc",
         "share",
         "t",
         "xt"
      ]
   },
   "prereqs" : {
      "configure" : {
         "requires" : {
            "Module::Build::Tiny" : "0.034"
         }
      },
      "develop" : {
         "requires" : {
            "Dist::Milla" : "v1.0.15",
            "Test::Pod" : "1.41"
         }
      },
      "runtime" : {
         "requires" : {
            "perl" : "5.008005"
         }
      },
      "test" : {
         "requires" : {
            "Test::More" : "0.96"
         }
      }
   },
   "release_status" : "stable",
   "version" : "0.01"
}

